<?xml version="1.0" standalone="no"?>
<!DOCTYPE svg PUBLIC "-//W3C//DTD SVG 20010904//EN"
 "http://www.w3.org/TR/2001/REC-SVG-20010904/DTD/svg10.dtd">
<svg version="1.0" xmlns="http://www.w3.org/2000/svg"
 width="512.000000pt" height="512.000000pt" viewBox="0 0 512.000000 512.000000"
 preserveAspectRatio="xMidYMid meet">

<g transform="translate(0.000000,512.000000) scale(0.100000,-0.100000)"
fill="#000000" stroke="none">
<path d="M648 5110 c-170 -29 -292 -93 -418 -220 -108 -107 -162 -197 -202
-336 l-23 -79 0 -1915 0 -1915 23 -79 c40 -139 94 -229 202 -336 107 -108 197
-162 336 -202 l79 -23 1915 0 1915 0 79 23 c139 40 229 94 336 202 108 107
162 197 202 336 l23 79 0 1915 0 1915 -23 79 c-40 139 -94 229 -202 336 -105
106 -193 159 -330 202 l-75 23 -1895 1 c-1042 1 -1916 -2 -1942 -6z m3796
-521 c38 -14 68 -34 95 -65 75 -85 71 -22 71 -1128 l0 -990 -112 110 c-62 61
-140 127 -173 147 -180 107 -420 127 -611 50 -117 -46 -182 -98 -429 -344
l-241 -239 -340 328 c-498 479 -504 484 -580 524 -121 63 -202 83 -339 82
-101 -1 -133 -5 -200 -27 -160 -53 -142 -38 -785 -640 l-285 -267 -3 1127 c-2
1277 -8 1188 77 1273 85 85 -91 78 1968 79 1826 1 1832 1 1887 -20z m-2579
-2048 c27 -12 386 -353 1070 -1016 567 -549 1032 -1002 1033 -1006 2 -5 -709
-9 -1615 -9 -1807 0 -1670 -6 -1757 71 -31 27 -51 57 -65 95 -20 51 -21 76
-21 402 l1 347 495 465 c679 637 691 649 727 659 50 14 89 12 132 -8z m2173
-306 c24 -11 128 -106 305 -283 l267 -267 0 -468 c0 -445 -5 -547 -30 -562 -6
-4 -707 667 -1125 1076 l-40 39 220 221 c138 139 235 228 260 240 49 23 94 24
143 4z"/>
<path d="M3088 3821 c-31 -10 -72 -28 -91 -40 -52 -32 -116 -106 -145 -169
-24 -50 -27 -70 -27 -157 0 -93 2 -105 33 -167 37 -75 105 -143 178 -178 189
-88 414 -10 506 178 31 62 33 74 33 167 0 93 -2 105 -33 167 -83 169 -282 256
-454 199z m197 -274 c19 -19 37 -47 41 -62 11 -43 -15 -105 -55 -132 -70 -47
-163 -16 -190 63 -18 52 -9 88 34 131 29 29 39 33 85 33 46 0 56 -4 85 -33z"/>
</g>
</svg>
